{"failedCount":0,"prefixedPath":"src\/test\/java\/Features\/APITest2.feature","packageQualifiedName":"src.test.java.Features.APITest2","loopIndex":-1,"relativePath":"src\/test\/java\/Features\/APITest2.feature","scenarioResults":[{"sectionIndex":0,"stepResults":[{"result":{"nanos":125782600,"millis":125.7826,"status":"passed"},"step":{"background":true,"line":4,"prefix":"Given","index":0,"text":"url 'https:\/\/reqres.in\/'"}},{"result":{"nanos":570900,"millis":0.5709,"status":"passed"},"step":{"line":7,"prefix":"Given","index":0,"text":"path '\/api\/users'"}},{"result":{"nanos":846086200,"millis":846.0862,"status":"passed"},"step":{"line":8,"prefix":"When","index":1,"text":"method get"},"stepLog":"12:58:52.838 request:\n1 > GET https:\/\/reqres.in\/api\/users\n1 > Host: reqres.in\n1 > Connection: Keep-Alive\n1 > User-Agent: Apache-HttpClient\/4.5.14 (Java\/17.0.2)\n1 > Accept-Encoding: gzip,deflate\n\n\n12:58:53.261 response time in milliseconds: 417\n1 < 200\n1 < Date: Thu, 17 Aug 2023 07:28:53 GMT\n1 < Content-Type: application\/json; charset=utf-8\n1 < Transfer-Encoding: chunked\n1 < Connection: keep-alive\n1 < X-Powered-By: Express\n1 < Access-Control-Allow-Origin: *\n1 < Etag: W\/\"3e4-2RLXvr5wTg9YQ6aH95CkYoFNuO8\"\n1 < Via: 1.1 vegur\n1 < Cache-Control: max-age=14400\n1 < CF-Cache-Status: HIT\n1 < Age: 1519\n1 < Report-To: {\"endpoints\":[{\"url\":\"https:\\\/\\\/a.nel.cloudflare.com\\\/report\\\/v3?s=Slip%2B9UM2xLcH8HhYTBH1MEOovkKG0pclO5iUdYGtlKA0a9ugvP8f9T%2B5YpzZuKLS4brt15Pplz%2FYdf2FbuC1fh7lcqc6dAeuNWV73flFq3wFencsXInO7WjdA%3D%3D\"}],\"group\":\"cf-nel\",\"max_age\":604800}\n1 < NEL: {\"success_fraction\":0,\"report_to\":\"cf-nel\",\"max_age\":604800}\n1 < Vary: Accept-Encoding\n1 < Server: cloudflare\n1 < CF-RAY: 7f8033ef2feb46f5-BOM\n{\"page\":1,\"per_page\":6,\"total\":12,\"total_pages\":2,\"data\":[{\"id\":1,\"email\":\"george.bluth@reqres.in\",\"first_name\":\"George\",\"last_name\":\"Bluth\",\"avatar\":\"https:\/\/reqres.in\/img\/faces\/1-image.jpg\"},{\"id\":2,\"email\":\"janet.weaver@reqres.in\",\"first_name\":\"Janet\",\"last_name\":\"Weaver\",\"avatar\":\"https:\/\/reqres.in\/img\/faces\/2-image.jpg\"},{\"id\":3,\"email\":\"emma.wong@reqres.in\",\"first_name\":\"Emma\",\"last_name\":\"Wong\",\"avatar\":\"https:\/\/reqres.in\/img\/faces\/3-image.jpg\"},{\"id\":4,\"email\":\"eve.holt@reqres.in\",\"first_name\":\"Eve\",\"last_name\":\"Holt\",\"avatar\":\"https:\/\/reqres.in\/img\/faces\/4-image.jpg\"},{\"id\":5,\"email\":\"charles.morris@reqres.in\",\"first_name\":\"Charles\",\"last_name\":\"Morris\",\"avatar\":\"https:\/\/reqres.in\/img\/faces\/5-image.jpg\"},{\"id\":6,\"email\":\"tracey.ramos@reqres.in\",\"first_name\":\"Tracey\",\"last_name\":\"Ramos\",\"avatar\":\"https:\/\/reqres.in\/img\/faces\/6-image.jpg\"}],\"support\":{\"url\":\"https:\/\/reqres.in\/#support-heading\",\"text\":\"To keep ReqRes free, contributions towards server costs are appreciated!\"}}\n\n"},{"result":{"nanos":27600,"millis":0.0276,"status":"passed"},"step":{"line":9,"prefix":"Then","index":2,"text":"status 200"}},{"result":{"nanos":29288400,"millis":29.2884,"status":"passed"},"step":{"line":10,"prefix":"And","index":3,"text":"def outputEmail = []"}},{"result":{"nanos":1434200,"millis":1.4342,"status":"passed"},"step":{"line":11,"prefix":"And","index":4,"text":"def outputFirstName = []"}},{"result":{"nanos":998500,"millis":0.9985,"status":"passed"},"step":{"line":12,"prefix":"And","index":5,"text":"def outputLastName = []"}},{"result":{"nanos":112721100,"millis":112.7211,"status":"passed"},"step":{"endLine":24,"comments":["#And response.data.filter(x => x.email.endsWith(\".in\")); outputEmail.push(x.email), outputFirstName.push(x.first_name), outputLastName.push(x.last_name)"],"line":14,"prefix":"*","docString":"function(arg){\nfor(i=0; i<arg.length; i++) {\nif(arg[i].email.endsWith(\".in\"))\n{\noutputEmail.push(arg[i].email), outputFirstName.push(arg[i].first_name), outputLastName.push(arg[i].last_name)\n}\n}\n}","index":6,"text":"def myFun ="}},{"result":{"nanos":151256200,"millis":151.2562,"status":"passed"},"step":{"line":25,"prefix":"Then","index":7,"text":"call myFun response.data"}},{"result":{"nanos":35229800,"millis":35.2298,"status":"passed"},"step":{"line":26,"prefix":"And","index":8,"text":"print outputEmail"},"stepLog":"12:58:53.639 [print] [\n  \"george.bluth@reqres.in\",\n  \"janet.weaver@reqres.in\",\n  \"emma.wong@reqres.in\",\n  \"eve.holt@reqres.in\",\n  \"charles.morris@reqres.in\",\n  \"tracey.ramos@reqres.in\"\n]\n \n"},{"result":{"nanos":2292000,"millis":2.292,"status":"passed"},"step":{"line":27,"prefix":"And","index":9,"text":"print outputFirstName"},"stepLog":"12:58:53.645 [print] [\n  \"George\",\n  \"Janet\",\n  \"Emma\",\n  \"Eve\",\n  \"Charles\",\n  \"Tracey\"\n]\n \n"},{"result":{"nanos":1761100,"millis":1.7611,"status":"passed"},"step":{"line":28,"prefix":"And","index":10,"text":"print outputLastName"},"stepLog":"12:58:53.647 [print] [\n  \"Bluth\",\n  \"Weaver\",\n  \"Wong\",\n  \"Holt\",\n  \"Morris\",\n  \"Ramos\"\n]\n \n"},{"result":{"nanos":19619400,"millis":19.6194,"status":"passed"},"step":{"comments":["#Using wildcard get email from all the json objects. Both should be equal also the order should be same"],"line":30,"prefix":"Then","index":11,"text":"match response.data[*].email == [ 'george.bluth@reqres.in', 'janet.weaver@reqres.in', 'emma.wong@reqres.in', 'eve.holt@reqres.in', 'charles.morris@reqres.in', 'tracey.ramos@reqres.in' ]"}},{"result":{"nanos":2250200,"millis":2.2502,"status":"passed"},"step":{"comments":["# used wildcard(*) with contains where it checks \"George\", \"Janet\" was present or not"],"line":32,"prefix":"Then","index":12,"text":"match response.data[*].first_name contains [ \"George\", \"Janet\" ]"}},{"result":{"nanos":2215100,"millis":2.2151,"status":"passed"},"step":{"comments":["#Checking the length of the data"],"line":34,"prefix":"Then","index":13,"text":"match response.data == '#1'"}}],"executorName":"main","line":6,"name":"GET Reqres","description":"","durationMillis":1331.5333,"startTime":1692257332315,"failed":false,"refId":"[1:6]","endTime":1692257333672,"exampleIndex":-1},{"sectionIndex":1,"stepResults":[{"result":{"nanos":1384100,"millis":1.3841,"status":"passed"},"step":{"background":true,"line":4,"prefix":"Given","index":0,"text":"url 'https:\/\/reqres.in\/'"}},{"result":{"nanos":666700,"millis":0.6667,"status":"passed"},"step":{"line":37,"prefix":"Given","index":0,"text":"path '\/api\/users'"}},{"result":{"nanos":162218600,"millis":162.2186,"status":"passed"},"step":{"line":38,"prefix":"When","index":1,"text":"method get"},"stepLog":"12:58:53.705 request:\n1 > GET https:\/\/reqres.in\/api\/users\n1 > Host: reqres.in\n1 > Connection: Keep-Alive\n1 > User-Agent: Apache-HttpClient\/4.5.14 (Java\/17.0.2)\n1 > Accept-Encoding: gzip,deflate\n\n\n12:58:53.860 response time in milliseconds: 151\n1 < 200\n1 < Date: Thu, 17 Aug 2023 07:28:54 GMT\n1 < Content-Type: application\/json; charset=utf-8\n1 < Transfer-Encoding: chunked\n1 < Connection: keep-alive\n1 < X-Powered-By: Express\n1 < Access-Control-Allow-Origin: *\n1 < Etag: W\/\"3e4-2RLXvr5wTg9YQ6aH95CkYoFNuO8\"\n1 < Via: 1.1 vegur\n1 < Cache-Control: max-age=14400\n1 < CF-Cache-Status: HIT\n1 < Age: 6361\n1 < Report-To: {\"endpoints\":[{\"url\":\"https:\\\/\\\/a.nel.cloudflare.com\\\/report\\\/v3?s=sW%2FUHSzQmf5PW2rpdosjk5fofcBMyDHoBmoM%2FyYY%2BRMqwOdkoEGhl4ObCPcuOkDJueC7a%2Fcf8kjv7ivUiF3Kk23dd8fH%2BzWBCmtuLOYIaXzaC3pBFzjKgNpBQQ%3D%3D\"}],\"group\":\"cf-nel\",\"max_age\":604800}\n1 < NEL: {\"success_fraction\":0,\"report_to\":\"cf-nel\",\"max_age\":604800}\n1 < Vary: Accept-Encoding\n1 < Server: cloudflare\n1 < CF-RAY: 7f8033f2fe80419f-BOM\n{\"page\":1,\"per_page\":6,\"total\":12,\"total_pages\":2,\"data\":[{\"id\":1,\"email\":\"george.bluth@reqres.in\",\"first_name\":\"George\",\"last_name\":\"Bluth\",\"avatar\":\"https:\/\/reqres.in\/img\/faces\/1-image.jpg\"},{\"id\":2,\"email\":\"janet.weaver@reqres.in\",\"first_name\":\"Janet\",\"last_name\":\"Weaver\",\"avatar\":\"https:\/\/reqres.in\/img\/faces\/2-image.jpg\"},{\"id\":3,\"email\":\"emma.wong@reqres.in\",\"first_name\":\"Emma\",\"last_name\":\"Wong\",\"avatar\":\"https:\/\/reqres.in\/img\/faces\/3-image.jpg\"},{\"id\":4,\"email\":\"eve.holt@reqres.in\",\"first_name\":\"Eve\",\"last_name\":\"Holt\",\"avatar\":\"https:\/\/reqres.in\/img\/faces\/4-image.jpg\"},{\"id\":5,\"email\":\"charles.morris@reqres.in\",\"first_name\":\"Charles\",\"last_name\":\"Morris\",\"avatar\":\"https:\/\/reqres.in\/img\/faces\/5-image.jpg\"},{\"id\":6,\"email\":\"tracey.ramos@reqres.in\",\"first_name\":\"Tracey\",\"last_name\":\"Ramos\",\"avatar\":\"https:\/\/reqres.in\/img\/faces\/6-image.jpg\"}],\"support\":{\"url\":\"https:\/\/reqres.in\/#support-heading\",\"text\":\"To keep ReqRes free, contributions towards server costs are appreciated!\"}}\n\n"},{"result":{"nanos":22800,"millis":0.0228,"status":"passed"},"step":{"line":39,"prefix":"Then","index":2,"text":"status 200"}}],"executorName":"main","line":36,"name":"GET Reqres","description":"","durationMillis":164.2922,"startTime":1692257333700,"failed":false,"refId":"[2:36]","endTime":1692257333865,"exampleIndex":-1},{"sectionIndex":2,"stepResults":[{"result":{"nanos":783500,"millis":0.7835,"status":"passed"},"step":{"background":true,"line":4,"prefix":"Given","index":0,"text":"url 'https:\/\/reqres.in\/'"}},{"result":{"nanos":6850700,"millis":6.8507,"status":"passed"},"step":{"line":43,"prefix":"*","index":0,"text":"def myFun = function(){ return 'its from fun' }"}},{"result":{"nanos":3894500,"millis":3.8945,"status":"passed"},"step":{"line":44,"prefix":"*","index":1,"text":"def dataValue = call myFun"}},{"result":{"nanos":2363500,"millis":2.3635,"status":"passed"},"step":{"line":45,"prefix":"Then","index":2,"text":"print 'function retured value', dataValue"},"stepLog":"12:58:53.912 [print] function retured value its from fun \n"}],"executorName":"main","line":42,"name":"Writing single line function","description":"","durationMillis":13.8922,"startTime":1692257333898,"failed":false,"refId":"[3:42]","endTime":1692257333913,"exampleIndex":-1}],"callDepth":0,"name":"API Test2 feature","description":"","resultDate":"2023-08-17 12:58:53 pm","durationMillis":1509.7177,"passedCount":3}